3.062889423751831259e+02
2.866275457382202063e+01
1.705021507263183622e+01
1.488768828392028887e+01
1.374073739051818777e+01
1.259925479888915945e+01
1.157894429206848130e+01
1.085795535087585506e+01
1.006516746520996008e+01
9.533095493316650959e+00
9.012935314178466939e+00
8.540065970420837260e+00
8.344526529312133789e+00
7.969521780014037660e+00
7.721524081230163539e+00
7.548150167465210281e+00
7.343946228027343537e+00
7.152026715278625879e+00
7.109213829040527344e+00
6.971469650268554474e+00
6.648679194450378027e+00
6.464947094917297576e+00
6.417837677001952734e+00
6.366917929649352992e+00
6.407451558113097967e+00
6.290485658645629918e+00
6.123479065895080176e+00
6.005710830688476776e+00
6.040648684501648269e+00
5.938597960472106863e+00
5.891815648078918777e+00
5.847529397010803542e+00
5.869994297027587571e+00
5.785641689300536683e+00
5.775173072814941300e+00
5.800893754959106197e+00
5.703950343132018652e+00
5.708167552947998047e+00
5.641640076637267853e+00
5.653809986114501918e+00
5.605025029182433727e+00
5.665721578598022390e+00
5.589473390579223988e+00
5.567936978340148890e+00
5.565231037139892756e+00
5.595160655975341513e+00
5.552656641006469940e+00
5.541776924133301030e+00
5.513687567710876536e+00
5.498860201835632289e+00
