2.921136042404174873e+02
2.929468862533569506e+01
1.811595178604126133e+01
1.617572256088256921e+01
1.516036713600158770e+01
1.396840913772583015e+01
1.298936080932617188e+01
1.218832338333129961e+01
1.153004159927368200e+01
1.077880160331726067e+01
1.027074325561523516e+01
9.872415676116943928e+00
9.508778505325317099e+00
9.244971246719360991e+00
8.993556108474731303e+00
8.746688466072082946e+00
8.561381921768187908e+00
8.247796239852904776e+00
7.990294141769409109e+00
7.922910094261169434e+00
7.795666837692261097e+00
7.773109211921691575e+00
7.521109180450439524e+00
7.510163068771362305e+00
7.420777893066405895e+00
7.402968630790710769e+00
7.360453071594238672e+00
7.342361259460449041e+00
7.213735375404358052e+00
7.208758797645568706e+00
7.225888199806213663e+00
7.176818151473998597e+00
7.169387221336364746e+00
7.090567097663879714e+00
6.933380103111266735e+00
6.910049939155578969e+00
6.850119247436523118e+00
6.899374084472656321e+00
6.889941353797912171e+00
6.810502600669861017e+00
6.806845974922180353e+00
6.748308267593383647e+00
6.760041661262512491e+00
6.763760614395141424e+00
6.692873191833496271e+00
6.682878761291504155e+00
6.597091665267944549e+00
6.590834412574768209e+00
6.577473764419555557e+00
6.556476645469665243e+00
