2.896901874542236328e+02
2.957314207077026325e+01
1.900482139587402486e+01
1.696023194313049487e+01
1.631956663131713725e+01
1.524998232841491763e+01
1.430596692085266142e+01
1.362829526901245103e+01
1.277578031539916914e+01
1.214835384368896420e+01
1.154655963897705107e+01
1.108642192840576257e+01
1.059818700790405188e+01
1.019235530853271499e+01
9.937014722824097035e+00
9.719854164123535867e+00
9.463396291732788512e+00
9.094731349945067933e+00
8.868031530380248384e+00
8.850082836151123900e+00
8.769164042472839427e+00
8.601876263618470020e+00
8.531344399452208904e+00
8.538432364463806934e+00
8.388869242668151927e+00
8.328313007354736897e+00
8.209406452178955149e+00
8.158043518066406818e+00
8.135456581115722230e+00
8.066627688407898233e+00
8.062983670234679323e+00
8.070843338966369629e+00
7.842364368438720312e+00
7.778666057586669957e+00
7.717995462417602148e+00
7.615664548873901651e+00
7.613831071853637944e+00
7.532244949340820561e+00
7.469980416297912207e+00
7.461707558631896831e+00
7.398730616569519469e+00
7.431727828979492578e+00
7.377040019035339569e+00
7.363971862792968892e+00
7.319947638511657750e+00
7.346012654304504785e+00
7.283596596717834437e+00
7.295444698333739986e+00
7.278875465393066513e+00
7.295024423599243413e+00
